<?xml version="1.0" encoding="UTF-8" standalone="no"?>
<!-- Created with Inkscape (http://www.inkscape.org/) -->

<svg
   width="173"
   height="56.000004"
   viewBox="0 0 173 56.000004"
   id="svg2"
   version="1.1"
   inkscape:version="1.1 (1:1.1+202105261517+ce6663b3b7)"
   sodipodi:docname="background.svg"
   xmlns:inkscape="http://www.inkscape.org/namespaces/inkscape"
   xmlns:sodipodi="http://sodipodi.sourceforge.net/DTD/sodipodi-0.dtd"
   xmlns:xlink="http://www.w3.org/1999/xlink"
   xmlns="http://www.w3.org/2000/svg"
   xmlns:svg="http://www.w3.org/2000/svg"
   xmlns:rdf="http://www.w3.org/1999/02/22-rdf-syntax-ns#"
   xmlns:cc="http://creativecommons.org/ns#"
   xmlns:dc="http://purl.org/dc/elements/1.1/">
  <style
     type="text/css"
     id="current-color-scheme">
      .ColorScheme-Text {
        color:#31363b;
        stop-color:#31363b;
      }
      .ColorScheme-Background {
        color:#eff0f1;
        stop-color:#eff0f1;
      }
      .ColorScheme-Highlight {
        color:#3daee9;
        stop-color:#3daee9;
      }
      .ColorScheme-ViewText {
        color:#31363b;
        stop-color:#31363b;
      }
      .ColorScheme-ViewBackground {
        color:#fcfcfc;
        stop-color:#fcfcfc;
      }
      .ColorScheme-ViewHover {
        color:#93cee9;
        stop-color:#93cee9;
      }
      .ColorScheme-ViewFocus{
        color:#3daee9;
        stop-color:#3daee9;
      }
      .ColorScheme-ButtonText {
        color:#31363b;
        stop-color:#31363b;
      }
      .ColorScheme-ButtonBackground {
        color:#eff0f1;
        stop-color:#eff0f1;
      }
      .ColorScheme-ButtonHover {
        color:#93cee9;
        stop-color:#93cee9;
      }
      .ColorScheme-ButtonFocus{
        color:#3daee9;
        stop-color:#3daee9;
      }
      </style>
  <defs
     id="defs4">
    <style
       type="text/css"
       id="style22">
      .ColorScheme-Text {
        color:#31363b;
      }
      .ColorScheme-Background {
        color:#eff0f1;
      }
      .ColorScheme-Highlight {
        color:#3daee9;
      }
      .ColorScheme-ViewText {
        color:#31363b;
      }
      .ColorScheme-ViewBackground {
        color:#fcfcfc;
      }
      .ColorScheme-ViewHover {
        color:#93cee9;
      }
      .ColorScheme-ViewFocus{
        color:#3daee9;
      }
      .ColorScheme-ButtonText {
        color:#31363b;
      }
      .ColorScheme-ButtonBackground {
        color:#eff0f1;
      }
      .ColorScheme-ButtonHover {
        color:#93cee9;
      }
      .ColorScheme-ButtonFocus{
        color:#3daee9;
      }
      </style>
    <style
       id="current-color-scheme-2"
       type="text/css">
      .ColorScheme-Text {
        color:#7B7C7E;
      }
      .ColorScheme-Background{
        color:#EFF0F1;
      }
      .ColorScheme-Highlight{
        color:#3DAEE6;
      }
      .ColorScheme-ViewText {
        color:#7B7C7E;
      }
      .ColorScheme-ViewBackground{
        color:#FCFCFC;
      }
      .ColorScheme-ViewHover {
        color:#3DAEE6;
      }
      .ColorScheme-ViewFocus{
        color:#1E92FF;
      }
      .ColorScheme-ButtonText {
        color:#7B7C7E;
      }
      .ColorScheme-ButtonBackground{
        color:#EFF0F1;
      }
      .ColorScheme-ButtonHover {
        color:#3DAEE6;
      }
      .ColorScheme-ButtonFocus{
        color:#1E92FF;
      }
</style>
    <mask
       id="mask4270-9"
       maskUnits="userSpaceOnUse">
      <g
         id="g4272-5">
        <path
           style="fill:#ffffff;fill-opacity:1;stroke:none"
           d="M 127,-30.9996 93.526316,2.5612549 74,22.0004 l 106,0 -19.52632,-19.4391451 z"
           id="path4274-2"
           inkscape:connector-curvature="0"
           sodipodi:nodetypes="cccccc" />
        <path
           sodipodi:nodetypes="cccccc"
           inkscape:connector-curvature="0"
           id="path4276-2"
           d="m 127,-13.9996 -12,12.0312498 -7,6.96875 38,0 -7,-6.96875 z"
           style="fill:#000000;fill-opacity:1;stroke:none" />
      </g>
    </mask>
    <filter
       height="2.0368"
       y="-0.51840002"
       width="1.5184"
       x="-0.25920001"
       id="filter4258-8"
       inkscape:collect="always">
      <feGaussianBlur
         id="feGaussianBlur4260-5"
         stdDeviation="4.104"
         inkscape:collect="always" />
    </filter>
    <linearGradient
       id="linearGradient3828-0">
      <stop
         id="stop3830-7"
         offset="0"
         style="stop-color:#232629;stop-opacity:0.239" />
      <stop
         style="stop-color:#1a1c1e;stop-opacity:0.239"
         offset="0.33000001"
         id="stop3836-9" />
      <stop
         style="stop-color:#111314;stop-opacity:0.098"
         offset="0.66000003"
         id="stop3832-0" />
      <stop
         id="stop3834-0"
         offset="1"
         style="stop-color:#000000;stop-opacity:0;" />
    </linearGradient>
    <linearGradient
       id="linearGradient3809-3">
      <stop
         id="stop3811-1"
         offset="0"
         style="stop-color:#232629;stop-opacity:0.23921569;" />
      <stop
         style="stop-color:#111314;stop-opacity:0.09803922;"
         offset="0.5"
         id="stop3817-3" />
      <stop
         id="stop3815-2"
         offset="1"
         style="stop-color:#000000;stop-opacity:0;" />
    </linearGradient>
    <linearGradient
       inkscape:collect="always"
       xlink:href="#linearGradient2457"
       id="linearGradient2429"
       gradientUnits="userSpaceOnUse"
       gradientTransform="matrix(4.3194301,0,0,3.4555708,786.64879,-766.28607)"
       x1="27.715099"
       y1="195.13016"
       x2="29.104172"
       y2="195.13016" />
    <linearGradient
       inkscape:collect="always"
       id="linearGradient2457">
      <stop
         style="stop-color:#000000;stop-opacity:0"
         offset="0"
         id="stop2445" />
      <stop
         style="stop-color:#000000;stop-opacity:0.016"
         offset="0.20000009"
         id="stop2447" />
      <stop
         style="stop-color:#000000;stop-opacity:0.035"
         offset="0.40000018"
         id="stop2449" />
      <stop
         style="stop-color:#000000;stop-opacity:0.067"
         offset="0.60000026"
         id="stop2451" />
      <stop
         style="stop-color:#000000;stop-opacity:0.102"
         offset="0.80000037"
         id="stop2453" />
      <stop
         style="stop-color:#000000;stop-opacity:0.161"
         offset="1"
         id="stop2455" />
    </linearGradient>
    <linearGradient
       inkscape:collect="always"
       xlink:href="#linearGradient2597"
       id="linearGradient2477"
       gradientUnits="userSpaceOnUse"
       gradientTransform="matrix(7.5590862,0,0,3.4555682,-1172.3631,-582.2857)"
       x1="27.78125"
       y1="194.99791"
       x2="29.104166"
       y2="194.99791" />
    <linearGradient
       inkscape:collect="always"
       id="linearGradient2597">
      <stop
         style="stop-color:#000000;stop-opacity:0"
         offset="0"
         id="stop2585" />
      <stop
         style="stop-color:#000000;stop-opacity:0.016"
         offset="0.20000009"
         id="stop2587" />
      <stop
         style="stop-color:#000000;stop-opacity:0.047"
         offset="0.40000018"
         id="stop2589" />
      <stop
         style="stop-color:#000000;stop-opacity:0.098"
         offset="0.60000026"
         id="stop2591" />
      <stop
         style="stop-color:#000000;stop-opacity:0.165"
         offset="0.80000037"
         id="stop2593" />
      <stop
         style="stop-color:#000000;stop-opacity:0.282"
         offset="1"
         id="stop2595" />
    </linearGradient>
    <linearGradient
       inkscape:collect="always"
       xlink:href="#linearGradient2407"
       id="linearGradient2425"
       gradientUnits="userSpaceOnUse"
       gradientTransform="matrix(5.3993084,0,0,3.4555662,-269.14249,-1606.6475)"
       x1="27.807726"
       y1="195.13019"
       x2="29.104189"
       y2="195.13019" />
    <linearGradient
       inkscape:collect="always"
       id="linearGradient2407">
      <stop
         style="stop-color:#000000;stop-opacity:0"
         offset="0"
         id="stop2403" />
      <stop
         style="stop-color:#000000;stop-opacity:0.02"
         offset="0.20000009"
         id="stop2417" />
      <stop
         style="stop-color:#000000;stop-opacity:0.043"
         offset="0.40000018"
         id="stop2415" />
      <stop
         style="stop-color:#000000;stop-opacity:0.078"
         offset="0.60000026"
         id="stop2413" />
      <stop
         style="stop-color:#000000;stop-opacity:0.133"
         offset="0.80000037"
         id="stop2411" />
      <stop
         style="stop-color:#000000;stop-opacity:0.2"
         offset="1"
         id="stop2405" />
    </linearGradient>
    <linearGradient
       inkscape:collect="always"
       xlink:href="#linearGradient2407"
       id="linearGradient2409"
       x1="27.78125"
       y1="194.99791"
       x2="29.104166"
       y2="194.99791"
       gradientUnits="userSpaceOnUse"
       gradientTransform="matrix(5.3993316,0,0,3.4555581,-85.143029,258.07837)" />
    <radialGradient
       inkscape:collect="always"
       xlink:href="#linearGradient2559"
       id="radialGradient2563"
       gradientUnits="userSpaceOnUse"
       gradientTransform="matrix(1.415953e-7,10.582672,-8.3149972,4.9244435e-6,1702.127,625.42808)"
       cx="30.515282"
       cy="191.71709"
       fx="30.515282"
       fy="191.71709"
       r="1.3229165" />
    <linearGradient
       inkscape:collect="always"
       id="linearGradient2559">
      <stop
         style="stop-color:#000000;stop-opacity:0.60384435"
         offset="0"
         id="stop2545" />
      <stop
         style="stop-color:#000000;stop-opacity:0.2"
         offset="0.36519879"
         id="stop2547" />
      <stop
         style="stop-color:#000000;stop-opacity:0.133"
         offset="0.49599999"
         id="stop2549" />
      <stop
         style="stop-color:#000000;stop-opacity:0.078"
         offset="0.62599999"
         id="stop2551" />
      <stop
         style="stop-color:#000000;stop-opacity:0.043"
         offset="0.75999999"
         id="stop2553" />
      <stop
         style="stop-color:#000000;stop-opacity:0.02"
         offset="0.88"
         id="stop2555" />
      <stop
         style="stop-color:#000000;stop-opacity:0;"
         offset="1"
         id="stop2557" />
    </linearGradient>
    <radialGradient
       inkscape:collect="always"
       xlink:href="#linearGradient2559"
       id="radialGradient1237"
       gradientUnits="userSpaceOnUse"
       gradientTransform="matrix(-1.415953e-7,10.582672,8.3149972,4.9244435e-6,-1518.127,625.42816)"
       cx="30.515282"
       cy="191.71709"
       fx="30.515282"
       fy="191.71709"
       r="1.3229165" />
    <radialGradient
       inkscape:collect="always"
       xlink:href="#linearGradient2559"
       id="radialGradient1241"
       gradientUnits="userSpaceOnUse"
       gradientTransform="matrix(-3.0136119e-5,-6.8030944,8.3149972,-3.9925258e-5,-1518.1261,1123.9681)"
       cx="30.515282"
       cy="191.71709"
       fx="30.515282"
       fy="191.71709"
       r="1.3229165" />
    <radialGradient
       inkscape:collect="always"
       xlink:href="#linearGradient2559"
       id="radialGradient1301"
       gradientUnits="userSpaceOnUse"
       gradientTransform="matrix(3.0136119e-5,-6.8030944,-8.3149972,-3.9925258e-5,1702.1261,1123.9682)"
       cx="30.515282"
       cy="191.71709"
       fx="30.515282"
       fy="191.71709"
       r="1.3229165" />
  </defs>
  <sodipodi:namedview
     id="base"
     pagecolor="#b0dba0"
     bordercolor="#cc0000"
     borderopacity="1"
     inkscape:pageopacity="0.65882353"
     inkscape:pageshadow="2"
     inkscape:zoom="10.008655"
     inkscape:cx="83.577664"
     inkscape:cy="31.572674"
     inkscape:document-units="px"
     inkscape:current-layer="layer1"
     showgrid="true"
     inkscape:showpageshadow="false"
     borderlayer="true"
     units="px"
     inkscape:window-width="1920"
     inkscape:window-height="1007"
     inkscape:window-x="0"
     inkscape:window-y="0"
     inkscape:window-maximized="1"
     showguides="true"
     fit-margin-top="0"
     fit-margin-left="0"
     fit-margin-right="0"
     fit-margin-bottom="0"
     inkscape:pagecheckerboard="0">
    <inkscape:grid
       type="xygrid"
       id="grid3336"
       empspacing="2"
       originx="0"
       originy="-91.999976"
       visible="true"
       enabled="true"
       snapvisiblegridlinesonly="true" />
  </sodipodi:namedview>
  <metadata
     id="metadata7">
    <rdf:RDF>
      <cc:Work
         rdf:about="">
        <dc:format>image/svg+xml</dc:format>
        <dc:type
           rdf:resource="http://purl.org/dc/dcmitype/StillImage" />
      </cc:Work>
    </rdf:RDF>
  </metadata>
  <g
     inkscape:label="Layer 1"
     inkscape:groupmode="layer"
     id="layer1"
     transform="translate(0,-904.36218)">
    <rect
       style="opacity:1;fill:#ff6600;fill-opacity:1;stroke:none"
       id="hint-tile-center"
       width="5"
       height="5"
       x="0"
       y="904.36218" />
    <g
       id="top">
      <rect
         y="-50.999985"
         x="-916.36218"
         height="32"
         width="6"
         id="rect4152"
         style="opacity:0.85;fill:currentColor;fill-opacity:1;stroke:none"
         transform="matrix(0,-1,-1,0,0,0)"
         class="ColorScheme-Background" />
    </g>
    <g
       id="bottom">
      <rect
         transform="matrix(0,1,-1,0,0,0)"
         style="opacity:0.85;fill:currentColor;fill-opacity:1;stroke:none"
         id="rect4148"
         width="6"
         height="32"
         x="948.36218"
         y="-50.999985"
         class="ColorScheme-Background" />
    </g>
    <g
       id="left">
      <rect
         transform="scale(-1,1)"
         style="opacity:0.85;fill:currentColor;fill-opacity:1;stroke:none"
         id="rect4144"
         width="5.9999995"
         height="32"
         x="-19.000004"
         y="916.36218"
         class="ColorScheme-Background" />
    </g>
    <g
       id="right">
      <rect
         y="916.36218"
         x="50.999985"
         height="32"
         width="5.9999995"
         id="rect4140"
         style="opacity:0.85;fill:currentColor;fill-opacity:1;stroke:none"
         class="ColorScheme-Background" />
    </g>
    <g
       id="center">
      <rect
         y="916.36218"
         x="19.000004"
         height="32"
         width="32"
         id="rect4401"
         style="opacity:1;fill:none;fill-opacity:1;stroke:none" />
      <rect
         style="opacity:0.85;fill:currentColor;fill-opacity:1;stroke:none"
         id="rect4138"
         width="32"
         height="32"
         x="19.000004"
         y="916.36218"
         class="ColorScheme-Background" />
    </g>
    <rect
       style="fill:#ff00ff;fill-opacity:1;stroke:none"
       id="hint-top-margin"
       width="4"
       height="6.0000248"
       x="33"
       y="916.36218" />
    <rect
       y="942.36218"
       x="33"
       height="5.9999752"
       width="4"
       id="hint-bottom-margin"
       style="fill:#ff00ff;fill-opacity:1;stroke:none" />
    <rect
       y="-51"
       x="930.36218"
       height="6.0000153"
       width="4"
       id="hint-right-margin"
       style="fill:#ff00ff;fill-opacity:1;stroke:none"
       transform="matrix(0,1,-1,0,0,0)" />
    <rect
       style="fill:#ff00ff;fill-opacity:1;stroke:none"
       id="hint-left-margin"
       width="4"
       height="6.0000038"
       x="930.36218"
       y="-25.000004"
       transform="matrix(0,1,-1,0,0,0)" />
    <rect
       style="fill:#00ff00;fill-opacity:1;stroke:none"
       id="hint-top-inset"
       width="4"
       height="0.000001"
       x="33"
       y="904.36218" />
    <rect
       y="954.36218"
       x="33"
       height="0.000001"
       width="4"
       id="hint-bottom-inset"
       style="fill:#00ff00;fill-opacity:1;stroke:none" />
    <rect
       style="fill:#00ff00;fill-opacity:1;stroke:none"
       id="hint-left-inset"
       width="4"
       height="0.000001"
       x="930.36218"
       y="-13.000004"
       transform="matrix(0,1,-1,0,0,0)" />
    <text
       id="text4270"
       y="134.59453"
       x="195.14162"
       style="font-style:normal;font-variant:normal;font-weight:bold;font-stretch:normal;font-size:14px;line-height:125%;font-family:'Gill Sans';text-align:justify;writing-mode:lr-tb;text-anchor:start;fill:#000000;fill-opacity:1;stroke:none"
       xml:space="preserve" />
    <g
       style="opacity:0.97899996"
       transform="matrix(-0.75,0,0,0.75,130.30761,670.84135)"
       id="g3041" />
    <path
       style="fill:#000000;fill-opacity:1;stroke:none;filter:url(#filter4258-8)"
       d="m 127,-13.9996 -12,12.0312498 -7,6.96875 38,0 -7,-6.96875 z"
       id="path4181"
       inkscape:connector-curvature="0"
       sodipodi:nodetypes="cccccc"
       mask="url(#mask4270-9)"
       inkscape:export-xdpi="90"
       inkscape:export-ydpi="90"
       transform="translate(138,846.77637)" />
    <g
       transform="matrix(-1,0,0,-1,586,961.77637)"
       id="balloon-tip-bottom">
      <image
         width="58"
         height="22"
         xlink:href="data:image/png;base64,iVBORw0KGgoAAAANSUhEUgAAADoAAAAWCAYAAACR1Y9lAAAABHNCSVQICAgIfAhkiAAAAkhJREFU WIXl10tu2zAQgOFfdmo3Dz+SHtRnmTMlCLooEMOLIMgq2fUUdReeKccj0pJCaVUChAyZpvh5hg81 IsL/UK6mfsBut2v6tBOR45TjaKaIaAFXAreAU6BHhWaATeFq5Vi4AuOCZ2N1FJCN9m3XGTAv1Flo 2xT6rCpTzNGGNrSF0HIE/mSu9t1oZZSIun/eR3DG6Y+8AhauLrX6e9bO/7YJfVeVaqgbSAR+02q4 78A1cKP1Wu8Z2tpH8CjYKmiIpEVzToIuSbhb4C7UWxJ6SYLa3LV+q7FfhmbS1QMXpAgacAWsgY3W td4zsEXYohvBVdgvQQtz0qAeacANcA88AL+1Pui9DQnssR5ajR0MLSB9ql5CforIh4h8AJ9cxvpU rsYOgvZI1yWnOZdDvovIm/Wln98L2BvOF6nqNO4NzayutuH7OWmLzgrYKuAH8Coih9in3nvVNvf6 mxVpkfJzNh4wBmF7QbVDv+nnkLbwWCS3nKJ1EJFfpb71u4O23ZIim1ug7Ln/xtIX2wl1SKsl5B1p VbV03YvIz65naJs952m8pr1ARWzTF3sROhBp24el7IuIPHcNwGGfgRdSCvvtpxpbhA5AWrpG5FNf pMM+FbBdadyJzUIzJ56ItBNPCfk4FOmwjx1YvxpHbHGBakELxzq/Vy5Ix7p44qlCZrDxBGXHRb/t +D22iC2lrk/Z+BYSj3aG3I+BtKJ97TlfmGIK+7ceP+ZWOYNeOKTPSa9Ucb9ccdpCBs/JrqJ9Htxz 4v664Hx/LUb1Lw6DnOovEs1hAAAAAElFTkSuQmCC "
         id="image4316"
         x="197"
         y="-15" />
      <g
         transform="translate(200.00001,-11.000062)"
         inkscape:export-ydpi="90"
         inkscape:export-xdpi="90"
         inkscape:export-filename="/home/diau/svn/playground-plasma/desktoptheme/air/widgets/image2579.png"
         id="g4318">
        <path
           sodipodi:nodetypes="cccc"
           style="color:#eff0f1;fill:currentColor;fill-opacity:0.8"
           d="m 14.99998,19.000062 23.00001,0 L 25.999985,7.0000625 z"
           id="path4320"
           inkscape:connector-curvature="0"
           class="ColorScheme-Background" />
      </g>
      <path
         id="path4322"
         d="m 214,8 1.6066,8.429e-4 L 226,-2.585786 236.39256,8 238,8 226,-4 l 0,0 0,0 0,0 0,0 z"
         style="fill:#ffffff;fill-opacity:1;fill-rule:nonzero;stroke:none"
         sodipodi:nodetypes="ccccccccccc"
         inkscape:connector-curvature="0" />
      <path
         sodipodi:nodetypes="ccccccccccc"
         style="opacity:0.35;fill:#000000;fill-opacity:1;fill-rule:nonzero;stroke:none"
         d="M 213.60586,7.0001054 215,7 226.00084,-3.9380585 236.98309,7 l 1.39256,0 -12.37481,-12.3522715 0,0 0,0 0,0 0,0 z"
         id="path4324"
         inkscape:connector-curvature="0" />
    </g>
    <g
       id="balloon-tip-right"
       transform="matrix(0,1,-1,0,397.00084,698.79328)">
      <image
         y="-15"
         x="197"
         id="image5017"
         xlink:href="data:image/png;base64,iVBORw0KGgoAAAANSUhEUgAAADoAAAAWCAYAAACR1Y9lAAAABHNCSVQICAgIfAhkiAAAAkhJREFU WIXl10tu2zAQgOFfdmo3Dz+SHtRnmTMlCLooEMOLIMgq2fUUdReeKccj0pJCaVUChAyZpvh5hg81 IsL/UK6mfsBut2v6tBOR45TjaKaIaAFXAreAU6BHhWaATeFq5Vi4AuOCZ2N1FJCN9m3XGTAv1Flo 2xT6rCpTzNGGNrSF0HIE/mSu9t1oZZSIun/eR3DG6Y+8AhauLrX6e9bO/7YJfVeVaqgbSAR+02q4 78A1cKP1Wu8Z2tpH8CjYKmiIpEVzToIuSbhb4C7UWxJ6SYLa3LV+q7FfhmbS1QMXpAgacAWsgY3W td4zsEXYohvBVdgvQQtz0qAeacANcA88AL+1Pui9DQnssR5ajR0MLSB9ql5CforIh4h8AJ9cxvpU rsYOgvZI1yWnOZdDvovIm/Wln98L2BvOF6nqNO4NzayutuH7OWmLzgrYKuAH8Coih9in3nvVNvf6 mxVpkfJzNh4wBmF7QbVDv+nnkLbwWCS3nKJ1EJFfpb71u4O23ZIim1ug7Ln/xtIX2wl1SKsl5B1p VbV03YvIz65naJs952m8pr1ARWzTF3sROhBp24el7IuIPHcNwGGfgRdSCvvtpxpbhA5AWrpG5FNf pMM+FbBdadyJzUIzJ56ItBNPCfk4FOmwjx1YvxpHbHGBakELxzq/Vy5Ix7p44qlCZrDxBGXHRb/t +D22iC2lrk/Z+BYSj3aG3I+BtKJ97TlfmGIK+7ceP+ZWOYNeOKTPSa9Ucb9ccdpCBs/JrqJ9Htxz 4v664Hx/LUb1Lw6DnOovEs1hAAAAAElFTkSuQmCC "
         height="22"
         width="58" />
      <g
         id="g5019"
         inkscape:export-filename="/home/diau/svn/playground-plasma/desktoptheme/air/widgets/image2579.png"
         inkscape:export-xdpi="90"
         inkscape:export-ydpi="90"
         transform="translate(200.00001,-11.000062)">
        <path
           inkscape:connector-curvature="0"
           id="path5021"
           d="m 14.99998,19.000062 23.00001,0 L 25.999985,7.0000625 z"
           style="color:#eff0f1;fill:currentColor;fill-opacity:0.8"
           sodipodi:nodetypes="cccc"
           class="ColorScheme-Background" />
      </g>
      <path
         inkscape:connector-curvature="0"
         sodipodi:nodetypes="ccccccccccc"
         style="fill:#ffffff;fill-opacity:1;fill-rule:nonzero;stroke:none"
         d="m 214,8 1.6066,8.429e-4 L 226,-2.585786 236.39256,8 238,8 226,-4 l 0,0 0,0 0,0 0,0 z"
         id="path5023" />
      <path
         inkscape:connector-curvature="0"
         id="path5025"
         d="M 213.60586,7.0001054 215,7 226.00084,-3.9380585 236.98309,7 l 1.39256,0 -12.37481,-12.3522715 0,0 0,0 0,0 0,0 z"
         style="opacity:0.35;fill:#000000;fill-opacity:1;fill-rule:nonzero;stroke:none"
         sodipodi:nodetypes="ccccccccccc" />
    </g>
    <g
       transform="translate(134,887.77637)"
       id="balloon-tip-top">
      <image
         width="58"
         height="22"
         xlink:href="data:image/png;base64,iVBORw0KGgoAAAANSUhEUgAAADoAAAAWCAYAAACR1Y9lAAAABHNCSVQICAgIfAhkiAAAAkhJREFU WIXl10tu2zAQgOFfdmo3Dz+SHtRnmTMlCLooEMOLIMgq2fUUdReeKccj0pJCaVUChAyZpvh5hg81 IsL/UK6mfsBut2v6tBOR45TjaKaIaAFXAreAU6BHhWaATeFq5Vi4AuOCZ2N1FJCN9m3XGTAv1Flo 2xT6rCpTzNGGNrSF0HIE/mSu9t1oZZSIun/eR3DG6Y+8AhauLrX6e9bO/7YJfVeVaqgbSAR+02q4 78A1cKP1Wu8Z2tpH8CjYKmiIpEVzToIuSbhb4C7UWxJ6SYLa3LV+q7FfhmbS1QMXpAgacAWsgY3W td4zsEXYohvBVdgvQQtz0qAeacANcA88AL+1Pui9DQnssR5ajR0MLSB9ql5CforIh4h8AJ9cxvpU rsYOgvZI1yWnOZdDvovIm/Wln98L2BvOF6nqNO4NzayutuH7OWmLzgrYKuAH8Coih9in3nvVNvf6 mxVpkfJzNh4wBmF7QbVDv+nnkLbwWCS3nKJ1EJFfpb71u4O23ZIim1ug7Ln/xtIX2wl1SKsl5B1p VbV03YvIz65naJs952m8pr1ARWzTF3sROhBp24el7IuIPHcNwGGfgRdSCvvtpxpbhA5AWrpG5FNf pMM+FbBdadyJzUIzJ56ItBNPCfk4FOmwjx1YvxpHbHGBakELxzq/Vy5Ix7p44qlCZrDxBGXHRb/t +D22iC2lrk/Z+BYSj3aG3I+BtKJ97TlfmGIK+7ceP+ZWOYNeOKTPSa9Ucb9ccdpCBs/JrqJ9Htxz 4v664Hx/LUb1Lw6DnOovEs1hAAAAAElFTkSuQmCC "
         id="image5029"
         x="197"
         y="-15" />
      <g
         transform="translate(200.00001,-11.000062)"
         inkscape:export-ydpi="90"
         inkscape:export-xdpi="90"
         inkscape:export-filename="/home/diau/svn/playground-plasma/desktoptheme/air/widgets/image2579.png"
         id="g5031">
        <path
           sodipodi:nodetypes="cccc"
           style="color:#eff0f1;fill:currentColor;fill-opacity:0.8"
           d="m 14.99998,19.000062 23.00001,0 L 25.999985,7.0000625 z"
           id="path5033"
           inkscape:connector-curvature="0"
           class="ColorScheme-Background" />
      </g>
      <path
         id="path5035"
         d="m 214,8 1.6066,8.429e-4 L 226,-2.585786 236.39256,8 238,8 226,-4 l 0,0 0,0 0,0 0,0 z"
         style="fill:#ffffff;fill-opacity:1;fill-rule:nonzero;stroke:none"
         sodipodi:nodetypes="ccccccccccc"
         inkscape:connector-curvature="0" />
      <path
         sodipodi:nodetypes="ccccccccccc"
         style="opacity:0.35;fill:#000000;fill-opacity:1;fill-rule:nonzero;stroke:none"
         d="M 213.60586,7.0001054 215,7 226.00084,-3.9380585 236.98309,7 l 1.39256,0 -12.37481,-12.3522715 0,0 0,0 0,0 0,0 z"
         id="path5037"
         inkscape:connector-curvature="0" />
    </g>
    <g
       id="balloon-tip-left"
       transform="matrix(0,-1,1,0,323,1150.7595)">
      <image
         y="-15"
         x="197"
         id="image5041"
         xlink:href="data:image/png;base64,iVBORw0KGgoAAAANSUhEUgAAADoAAAAWCAYAAACR1Y9lAAAABHNCSVQICAgIfAhkiAAAAkhJREFU WIXl10tu2zAQgOFfdmo3Dz+SHtRnmTMlCLooEMOLIMgq2fUUdReeKccj0pJCaVUChAyZpvh5hg81 IsL/UK6mfsBut2v6tBOR45TjaKaIaAFXAreAU6BHhWaATeFq5Vi4AuOCZ2N1FJCN9m3XGTAv1Flo 2xT6rCpTzNGGNrSF0HIE/mSu9t1oZZSIun/eR3DG6Y+8AhauLrX6e9bO/7YJfVeVaqgbSAR+02q4 78A1cKP1Wu8Z2tpH8CjYKmiIpEVzToIuSbhb4C7UWxJ6SYLa3LV+q7FfhmbS1QMXpAgacAWsgY3W td4zsEXYohvBVdgvQQtz0qAeacANcA88AL+1Pui9DQnssR5ajR0MLSB9ql5CforIh4h8AJ9cxvpU rsYOgvZI1yWnOZdDvovIm/Wln98L2BvOF6nqNO4NzayutuH7OWmLzgrYKuAH8Coih9in3nvVNvf6 mxVpkfJzNh4wBmF7QbVDv+nnkLbwWCS3nKJ1EJFfpb71u4O23ZIim1ug7Ln/xtIX2wl1SKsl5B1p VbV03YvIz65naJs952m8pr1ARWzTF3sROhBp24el7IuIPHcNwGGfgRdSCvvtpxpbhA5AWrpG5FNf pMM+FbBdadyJzUIzJ56ItBNPCfk4FOmwjx1YvxpHbHGBakELxzq/Vy5Ix7p44qlCZrDxBGXHRb/t +D22iC2lrk/Z+BYSj3aG3I+BtKJ97TlfmGIK+7ceP+ZWOYNeOKTPSa9Ucb9ccdpCBs/JrqJ9Htxz 4v664Hx/LUb1Lw6DnOovEs1hAAAAAElFTkSuQmCC "
         height="22"
         width="58" />
      <g
         id="g5043"
         inkscape:export-filename="/home/diau/svn/playground-plasma/desktoptheme/air/widgets/image2579.png"
         inkscape:export-xdpi="90"
         inkscape:export-ydpi="90"
         transform="translate(200.00001,-11.000062)">
        <path
           inkscape:connector-curvature="0"
           id="path5045"
           d="m 14.99998,19.000062 23.00001,0 L 25.999985,7.0000625 z"
           style="color:#eff0f1;fill:currentColor;fill-opacity:0.8"
           sodipodi:nodetypes="cccc"
           class="ColorScheme-Background" />
      </g>
      <path
         inkscape:connector-curvature="0"
         sodipodi:nodetypes="ccccccccccc"
         style="fill:#ffffff;fill-opacity:1;fill-rule:nonzero;stroke:none"
         d="m 214,8 1.6066,8.429e-4 L 226,-2.585786 236.39256,8 238,8 226,-4 l 0,0 0,0 0,0 0,0 z"
         id="path5047" />
      <path
         inkscape:connector-curvature="0"
         id="path5049"
         d="M 213.60586,7.0001054 215,7 226.00084,-3.9380585 236.98309,7 l 1.39256,0 -12.37481,-12.3522715 0,0 0,0 0,0 0,0 z"
         style="opacity:0.35;fill:#000000;fill-opacity:1;fill-rule:nonzero;stroke:none"
         sodipodi:nodetypes="ccccccccccc" />
    </g>
    <rect
       y="914.36218"
       x="132"
       height="6.000021"
       width="27.999992"
       style="opacity:1;fill:#000000;fill-opacity:1;stroke:none;stroke-width:0.9281925;stroke-linecap:round;stroke-linejoin:round;stroke-miterlimit:4;stroke-dasharray:none;stroke-dashoffset:0;stroke-opacity:1;paint-order:normal"
       id="mask-top" />
    <rect
       y="920.36218"
       x="132"
       height="28.000015"
       width="27.999992"
       style="opacity:1;fill:#000000;fill-opacity:1;stroke:none;stroke-width:2.00512195;stroke-linecap:round;stroke-linejoin:round;stroke-miterlimit:4;stroke-dasharray:none;stroke-dashoffset:0;stroke-opacity:1;paint-order:normal"
       id="mask-center" />
    <rect
       transform="scale(1,-1)"
       y="-954.36218"
       x="132"
       height="6.0000215"
       width="27.999992"
       style="opacity:1;fill:#000000;fill-opacity:1;stroke:none;stroke-width:0.92819244;stroke-linecap:round;stroke-linejoin:round;stroke-miterlimit:4;stroke-dasharray:none;stroke-dashoffset:0;stroke-opacity:1;paint-order:normal"
       id="mask-bottom" />
    <rect
       transform="rotate(90)"
       y="-132"
       x="920.36218"
       height="5.9999981"
       width="28.000015"
       style="opacity:1;fill:#000000;fill-opacity:1;stroke:none;stroke-width:0.92819101;stroke-linecap:round;stroke-linejoin:round;stroke-miterlimit:4;stroke-dasharray:none;stroke-dashoffset:0;stroke-opacity:1;paint-order:normal"
       id="mask-left" />
    <rect
       transform="rotate(90)"
       y="-166"
       x="920.36218"
       height="5.9999981"
       width="28.000015"
       style="opacity:1;fill:#000000;fill-opacity:1;stroke:none;stroke-width:0.92819101;stroke-linecap:round;stroke-linejoin:round;stroke-miterlimit:4;stroke-dasharray:none;stroke-dashoffset:0;stroke-opacity:1;paint-order:normal"
       id="mask-right" />
    <path
       class="ColorScheme-Background"
       style="opacity:0.85;fill:currentColor;stroke-width:2"
       d="m 17,910.36216 c -2.182709,0.0672 -3.932783,1.8173 -4,4 v 2 h 6 v -6 z"
       id="topleft"
       inkscape:connector-curvature="0"
       sodipodi:nodetypes="cccccc" />
    <path
       sodipodi:nodetypes="cccccc"
       inkscape:connector-curvature="0"
       id="topright"
       d="m 57,914.36216 c -0.0672,-2.18271 -1.8173,-3.93278 -4,-4 h -2 v 6 h 6 z"
       style="opacity:0.85;fill:currentColor;stroke-width:2"
       class="ColorScheme-Background" />
    <path
       class="ColorScheme-Background"
       style="opacity:0.85;fill:currentColor;stroke-width:2"
       d="m 53,954.36216 c 2.18271,-0.0672 3.93278,-1.8173 4,-4 v -2 h -6 v 6 z"
       id="bottomright"
       inkscape:connector-curvature="0"
       sodipodi:nodetypes="cccccc" />
    <path
       sodipodi:nodetypes="cccccc"
       inkscape:connector-curvature="0"
       id="bottomleft"
       d="m 13,950.36216 c 0.0672,2.18271 1.8173,3.93278 4,4 h 2 v -6 h -6 z"
       style="opacity:0.85;fill:currentColor;stroke-width:2"
       class="ColorScheme-Background" />
    <path
       style="opacity:1;fill:#000000;fill-opacity:1;stroke-width:2"
       d="m 126,950.36216 c 0.0672,2.18271 1.8173,3.93278 4,4 h 2 v -6 h -6 z"
       id="mask-bottomleft"
       inkscape:connector-curvature="0"
       sodipodi:nodetypes="cccccc" />
    <path
       sodipodi:nodetypes="cccccc"
       inkscape:connector-curvature="0"
       id="mask-bottomright"
       d="m 162,954.36216 c 2.18271,-0.0672 3.93278,-1.8173 4,-4 v -2 h -6 v 6 z"
       style="opacity:1;fill:#000000;fill-opacity:1;stroke-width:2" />
    <path
       style="opacity:1;fill:#000000;fill-opacity:1;stroke-width:2"
       d="m 166,918.36216 c -0.0672,-2.18271 -1.8173,-3.93278 -4,-4 h -2 v 6 h 6 z"
       id="mask-topright"
       inkscape:connector-curvature="0"
       sodipodi:nodetypes="cccccc" />
    <path
       sodipodi:nodetypes="cccccc"
       inkscape:connector-curvature="0"
       id="mask-topleft"
       d="m 130,914.36216 c -2.18271,0.0672 -3.93278,1.8173 -4,4 v 2 h 6 v -6 z"
       style="opacity:1;fill:#000000;fill-opacity:1;stroke-width:2" />
    <g
       id="shadow-center"
       transform="translate(56.939311)">
      <rect
         style="opacity:1;fill:none;fill-opacity:1;stroke:none"
         id="rect4908"
         width="32"
         height="32"
         x="19.000004"
         y="916.36218" />
      <rect
         y="916.36218"
         x="19.000004"
         height="32"
         width="32"
         id="rect4910"
         style="opacity:1;fill:none;fill-opacity:1;stroke:none" />
    </g>
    <rect
       style="fill:url(#linearGradient2429);fill-opacity:1;stroke-width:1.0238;stroke-linecap:round;stroke-linejoin:bevel"
       id="shadow-top"
       width="9.999979"
       height="31.99991"
       x="902.36218"
       y="-107.99991"
       ry="0"
       transform="rotate(90)"
       inkscape:label="#shadow-top" />
    <rect
       y="902.3623"
       x="89"
       height="9.9998569"
       width="2"
       id="shadow-hint-top-margin"
       style="fill:#ff00ff;fill-opacity:1;stroke:none;stroke-width:0.82276" />
    <rect
       style="fill:url(#linearGradient2477);fill-opacity:1;stroke-width:1.35437;stroke-linecap:round;stroke-linejoin:bevel"
       id="shadow-bottom"
       width="10.00004"
       height="32.000004"
       x="-962.36218"
       y="76"
       ry="0"
       transform="rotate(-90)"
       inkscape:label="#shadow-bottom" />
    <rect
       style="fill:#ff00ff;fill-opacity:1;stroke:none;stroke-width:0.816496"
       id="shadow-hint-bottom-margin"
       width="2"
       height="10.000021"
       x="89"
       y="952.36218" />
    <rect
       style="fill:url(#linearGradient2425);fill-opacity:1;stroke-width:1.14465;stroke-linecap:round;stroke-linejoin:bevel"
       id="shadow-right"
       width="9.9999962"
       height="31.999954"
       x="-122"
       y="-948.36218"
       ry="0"
       transform="scale(-1)"
       inkscape:label="#shadow-right" />
    <rect
       transform="rotate(90)"
       style="fill:#ff00ff;fill-opacity:1;stroke:none;stroke-width:0.81649"
       id="shadow-hint-right-margin"
       width="1.9999572"
       height="10"
       x="929.36218"
       y="-122" />
    <rect
       style="fill:url(#linearGradient2409);fill-opacity:1;stroke-width:1.14464;stroke-linecap:round;stroke-linejoin:bevel"
       id="shadow-left"
       width="9.9999981"
       height="31.999956"
       x="62"
       y="916.36218"
       ry="0"
       inkscape:label="#shadow-left" />
    <rect
       transform="rotate(90)"
       y="-72"
       x="929.36218"
       height="10"
       width="2"
       id="shadow-hint-left-margin"
       style="fill:#ff00ff;fill-opacity:1;stroke:none;stroke-width:0.816494" />
    <rect
       y="902.36218"
       x="93"
       height="9.999979"
       width="2"
       id="shadow-hint-top-inset"
       style="fill:#00ff00;fill-opacity:1;stroke:none;stroke-width:0.816496" />
    <rect
       style="fill:#00ff00;fill-opacity:1;stroke:none;stroke-width:0.816496"
       id="shadow-hint-bottom-inset"
       width="2"
       height="10.000021"
       x="93"
       y="952.36218" />
    <rect
       transform="rotate(90)"
       style="fill:#00ff00;fill-opacity:1;stroke:none;stroke-width:0.816501"
       id="shadow-hint-right-inset"
       width="2.0000107"
       height="10"
       x="933.36218"
       y="-122" />
    <rect
       transform="rotate(90)"
       y="-72"
       x="933.36218"
       height="10"
       width="2.0000322"
       id="shadow-hint-left-inset"
       style="fill:#00ff00;fill-opacity:1;stroke:none;stroke-width:0.816501" />
    <path
       style="fill:url(#radialGradient2563);fill-opacity:1;stroke:none;stroke-width:1.25px;stroke-linecap:butt;stroke-linejoin:miter;stroke-opacity:1"
       d="m 112,948.3622 c 0,2.00002 -2,4.00002 -4,3.99994 v 10.00008 c 6.8898,0 14,-7.14678 14,-14 z"
       id="shadow-bottomright"
       sodipodi:nodetypes="ccccc"
       inkscape:label="#shadow-bottomright" />
    <path
       style="fill:url(#radialGradient1237);fill-opacity:1;stroke:none;stroke-width:1.25px;stroke-linecap:butt;stroke-linejoin:miter;stroke-opacity:1"
       d="m 72,948.36228 c 0,1.99994 2,3.99994 4,3.99994 v 10.00008 c -6.8898,0 -14,-7.14678 -14,-14 z"
       id="shadow-bottomleft"
       sodipodi:nodetypes="ccccc"
       inkscape:label="#shadow-bottomleft" />
    <path
       style="fill:url(#radialGradient1241);fill-opacity:1;stroke:none;stroke-width:1.25px;stroke-linecap:butt;stroke-linejoin:miter;stroke-opacity:1"
       d="m 72,916.36216 c 0,-1.99994 2,-3.99994 4,-3.99994 v -10.00008 c -6.8898,0 -14,7.14678 -14,14 z"
       id="shadow-topleft"
       sodipodi:nodetypes="ccccc"
       inkscape:label="#shadow-topleft" />
    <path
       style="fill:url(#radialGradient1301);fill-opacity:1;stroke:none;stroke-width:1.25px;stroke-linecap:butt;stroke-linejoin:miter;stroke-opacity:1"
       d="m 112,916.36222 c 0,-1.99994 -2,-3.99994 -4,-3.99994 V 902.3622 c 6.8898,0 14,7.14678 14,14 z"
       id="shadow-topright"
       sodipodi:nodetypes="ccccc"
       inkscape:label="#shadow-topleft" />
    <rect
       y="-63"
       x="929.36218"
       height="1e-06"
       width="4"
       id="hint-right-inset"
       style="fill:#00ff00;fill-opacity:1;stroke:none"
       transform="rotate(90)" />
    <rect
       y="-60"
       x="930.36218"
       height="1e-06"
       width="4"
       id="hint-right-inset-3"
       style="fill:#00ff00;fill-opacity:1;stroke:none"
       transform="rotate(90)" />
  </g>
</svg>
